…
    
# 5_1_finding_duplicates 

In the 'bad_join' example above, the warning message indicates that there is an unexpected many-to-many relationship between 'x' and 'y'. We can quickly test for the duplicate values in the primary key column as follows:

    dup_airports |> 
      group_by(faa) |>
      count() |>
      arrange(desc(n))
  
    #># A tibble: 1,456 × 2
    #> # Groups:   faa [1,456]
    #> faa         n
    #> <chr>    <int>
    #> 1 MCI       2
    #> 2 ORD       2
    #> 3 04G       1
    #> 4 06A       1
    #> 5 06C       1
    #> 6 06N       1
    #> 7 09J       1
    #> 8 0A9       1
    #> 9 0G6       1
    #>10 0G7       1
    #># ℹ 1,446 more rows
    #># ℹ Use `print(n = ...)` to see more rows

The duplicates are pushed to the top of the list by sorting the faa counts using the arrange descending function. 
    
# 5_2_testing_uniqueness

Primary key columns can be tested for uniqueness using the same code as above. The result should always indicate counts of 1. Any values greater than 1 indicate additional occurrences of a value in the column. Here is the correct primary key in the original 'airport' table. 

    airports |> 
      group_by(faa) |>
      count() |>
      arrange(desc(n))
    #># A tibble: 1,458 × 2
    #># Groups:   faa [1,458]
    #>   faa       n
    #>   <chr> <int>
    #> 1 04G       1
    #> 2 06A       1
    #> 3 06C       1
    #> 4 06N       1
    #> 5 09J       1
    #> 6 0A9       1
    #> 7 0G6       1
    #> 8 0G7       1
    #> 9 0P2       1
    #>10 0S9       1
    #># ℹ 1,448 more rows
    #># ℹ Use `print(n = ...)` to see more rows
…
